^E:\COMPUTER\ELEKS\SEN\HELLOUSER\HELLOUSER\STDAFX.CPP
/c /ZI /nologo /W3 /WX- /Od /Oy- /D WIN32 /D _DEBUG /D _CONSOLE /D _UNICODE /D UNICODE /Gm /EHsc /RTC1 /MDd /GS /fp:precise /Zc:wchar_t /Zc:forScope /Zc:inline /Yc"stdafx.h" /Fp"DEBUG\HELLOUSER.PCH" /Fo"DEBUG\\" /Fd"DEBUG\VC140.PDB" /Gd /TP /analyze- E:\COMPUTER\ELEKS\SEN\HELLOUSER\HELLOUSER\STDAFX.CPP
^E:\COMPUTER\ELEKS\SEN\HELLOUSER\HELLOUSER\HELLOUSER.CPP
/c /ZI /nologo /W3 /WX- /Od /Oy- /D WIN32 /D _DEBUG /D _CONSOLE /D _UNICODE /D UNICODE /Gm /EHsc /RTC1 /MDd /GS /fp:precise /Zc:wchar_t /Zc:forScope /Zc:inline /Yu"stdafx.h" /Fp"DEBUG\HELLOUSER.PCH" /Fo"DEBUG\\" /Fd"DEBUG\VC140.PDB" /Gd /TP /analyze- E:\COMPUTER\ELEKS\SEN\HELLOUSER\HELLOUSER\HELLOUSER.CPP
^C:\USERS\VOLODYA\DESKTOP\TASKS\TASK1\HELLOUSER\HELLOUSER\STDAFX.CPP
/c /ZI /nologo /W3 /WX- /Od /Oy- /D WIN32 /D _DEBUG /D _CONSOLE /D _UNICODE /D UNICODE /Gm /EHsc /RTC1 /MDd /GS /fp:precise /Zc:wchar_t /Zc:forScope /Zc:inline /Yc"stdafx.h" /Fp"DEBUG\HELLOUSER.PCH" /Fo"DEBUG\\" /Fd"DEBUG\VC140.PDB" /Gd /TP /analyze- C:\USERS\VOLODYA\DESKTOP\TASKS\TASK1\HELLOUSER\HELLOUSER\STDAFX.CPP
^C:\USERS\VOLODYA\DESKTOP\TASKS\TASK1\HELLOUSER\HELLOUSER\HELLOUSER.CPP
/c /ZI /nologo /W3 /WX- /Od /Oy- /D WIN32 /D _DEBUG /D _CONSOLE /D _UNICODE /D UNICODE /Gm /EHsc /RTC1 /MDd /GS /fp:precise /Zc:wchar_t /Zc:forScope /Zc:inline /Yu"stdafx.h" /Fp"DEBUG\HELLOUSER.PCH" /Fo"DEBUG\\" /Fd"DEBUG\VC140.PDB" /Gd /TP /analyze- C:\USERS\VOLODYA\DESKTOP\TASKS\TASK1\HELLOUSER\HELLOUSER\HELLOUSER.CPP
